Content-Type: multipart/mixed; boundary="===============4109926519826912463=="
MIME-Version: 1.0
Number-Attachments: 1

--===============4109926519826912463==
MIME-Version: 1.0
Content-Type: text/cloud-config
Content-Disposition: attachment; filename="part-001"

#cloud-config
{}


--===============4109926519826912463==--
