Content-Type: multipart/mixed; boundary="===============1490587612272995358=="
MIME-Version: 1.0
Number-Attachments: 1

--===============1490587612272995358==
MIME-Version: 1.0
Content-Type: text/cloud-config
Content-Disposition: attachment; filename="part-001"

#cloud-config
{}


--===============1490587612272995358==--
