Content-Type: multipart/mixed; boundary="===============8309942118689857561=="
MIME-Version: 1.0
Number-Attachments: 1

--===============8309942118689857561==
MIME-Version: 1.0
Content-Type: text/cloud-config
Content-Disposition: attachment; filename="part-001"

#cloud-config
{}


--===============8309942118689857561==--
