Content-Type: multipart/mixed; boundary="===============7012142689730738731=="
MIME-Version: 1.0
Number-Attachments: 1

--===============7012142689730738731==
MIME-Version: 1.0
Content-Type: text/cloud-config
Content-Disposition: attachment; filename="part-001"

#cloud-config
{}


--===============7012142689730738731==--
